account,subaccount,corr_acc,turn_dt,turn_kt,taxform,taxpayer,ifns,kpp,fiscal_year,period,oktmo,corr_num
НУЗАТРАТЫ,23КР,НУ01,198659051.84,0.00,S01.44,0000,9975,997550001,2022,06M,32701000,0
НУЗАТРАТЫ,2501КР,НУ01,2008908641.44,0.00,S01.44,0000,9975,997550001,2022,06M,32701000,0
НУЗАТРАТЫ,2501ПР,НУ01,730072095.71,0.00,S01.44,0000,9975,997550001,2022,06M,32701000,0
НУЗАТРАТЫ,2601КР,НУ01,24961137.48,0.00,S01.44,0000,9975,997550001,2022,06M,32701000,0
НУЗАТРАТЫ,2904КР,НУ01,9753640.64,0.00,S01.44,0000,9975,997550001,2022,06M,32701000,0
НУЗАТРАТЫ,2905КР,НУ01,5648944.52,0.00,S01.44,0000,9975,997550001,2022,06M,32701000,0