account,subaccount,bal_in_debet,turn_dt,turn_kt,bal_ref_debet,taxform,taxpayer,ifns,kpp,fiscal_year,period,oktmo,corr_num
20,44,192104205.84,9030995139.34,9027697385.38,195401959.82,S01.07,0,9975,997550001,2022,01,32701000,0
43,27,864975282.52,6450620773.1,6184436897.61,1131159158.01,S01.07,0,9975,997550001,2022,01,32701000,0
45,01,0.0,418469.65,405052.2,13417.45,S01.07,0,9975,997550001,2022,01,32701000,0
45,02,465740050.36,272948498.13,368321623.69,370366924.8,S01.07,0,9975,997550001,2022,01,32701000,0
НУЗАТРАТЫ,2044ПР,181781986.18,1887840869.15,1884720311.41,184902543.92,S01.07,0,9975,997550001,2022,01,32701000,0
20,44,195401959.82,10169643236.09,10120914649.53,244130546.39,S01.07,0,9975,997550001,2022,02,32701000,0
43,27,1131159158.01,6248141607.6,6510773106.03,868527659.57,S01.07,0,9975,997550001,2022,02,32701000,0
45,01,13417.45,0.0,13417.45,0.0,S01.07,0,9975,997550001,2022,02,32701000,0
45,02,370366924.8,226424941.09,221622934.2,375168931.68,S01.07,0,9975,997550001,2022,02,32701000,0
НУЗАТРАТЫ,2044ПР,184902543.92,2137438869.23,2091328586.47,231012826.68,S01.07,0,9975,997550001,2022,02,32701000,0
20,44,244130546.39,10709442346.75,10674383770.67,279189122.46,S01.07,0,9975,997550001,2022,03,32701000,0
43,27,868527659.57,6418269482.94,6462046679.98,824750462.53,S01.07,0,9975,997550001,2022,03,32701000,0
45,02,375168931.68,70525531.24,307979729.25,137714733.68,S01.07,0,9975,997550001,2022,03,32701000,0
НУЗАТРАТЫ,2044ПР,231012826.68,2311634196.93,2278459402.22,264187621.39,S01.07,0,9975,997550001,2022,03,32701000,0
20,44,279189122.46,9984482524.4,9972468823.42,291202823.44,S01.07,0,9975,997550001,2022,04,32701000,0
43,27,824750462.53,6472056708.01,6278656119.12,1018151051.43,S01.07,0,9975,997550001,2022,04,32701000,0
45,01,0.0,279425.92,279425.92,0.0,S01.07,0,9975,997550001,2022,04,32701000,0
45,02,137714733.68,199469233.29,99769565.93,237414401.04,S01.07,0,9975,997550001,2022,04,32701000,0
НУЗАТРАТЫ,2044ПР,264187621.39,2095561114.29,2084192938.28,275555797.4,S01.07,0,9975,997550001,2022,04,32701000,0
20,44,291202823.44,8921130518.18,8978336325.34,233997016.27,S01.07,0,9975,997550001,2022,05,32701000,0
43,27,1018151051.43,6011246533.22,6255737624.39,773659960.27,S01.07,0,9975,997550001,2022,05,32701000,0
45,01,0.0,134952.97,134952.97,0.0,S01.07,0,9975,997550001,2022,05,32701000,0
45,02,237414401.04,254182083.97,211388165.06,280208319.94,S01.07,0,9975,997550001,2022,05,32701000,0
НУЗАТРАТЫ,2044ПР,275555797.4,1858704406.79,1912836408.75,221423795.43,S01.07,0,9975,997550001,2022,05,32701000,0
20,44,233997016.27,4867810275.39,4696415944.14,405391347.52,S01.07,0,9975,997550001,2022,06,32701000,0
43,27,773659960.27,2374602208.79,2165530949.82,982731219.24,S01.07,0,9975,997550001,2022,06,32701000,0
45,01,0.0,143786.44,143786.44,0.0,S01.07,0,9975,997550001,2022,06,32701000,0
45,02,280208319.94,317408498.16,335672275.15,261944542.95,S01.07,0,9975,997550001,2022,06,32701000,0
НУЗАТРАТЫ,2044ПР,221423795.43,1006203599.29,844018696.49,383608698.24,S01.07,0,9975,997550001,2022,06,32701000,0
