account,NREC(KAU1),name NREC(KAU1),corr_acc,cor_subaccount,turn_dt,turn_kt,taxform,taxpayer,ifns,kpp,fiscal_year,period,oktmo,corr_num
08,0103000000001068h,КС_060769 Производство водорода из природного газа,66,010,20395152.25,0.00,S01.14,0000,9975,997550001,2022,06,32701000,0
08,0103000000001109h,КС_060975 Приведение к ФНиП узла приготовления гидразин-гидрата к. 674,01,0101,0.00,3055032.20,S01.14,0000,9975,997550001,2022,06,32701000,0
08,01030000000012A0h,МО_2022_5044_003137_УСТАНОВКА КОНДЕНСАТОРНАЯ УКМ63-04-500-50 У3 БСК 2с.ш.,01,0101,0.00,214200.78,S01.14,0000,9975,997550001,2022,06,32701000,0
08,010300000000128Fh,МО_2022_3143_003120_ЗДАНИЕ МОДУЛЬНОЕ СКЛАД ДЛЯ ХРАНЕНИЯ БАЛЛОНОВ 5000*4000*3240-3670,01,0101,0.00,700000.00,S01.14,0000,9975,997550001,2022,06,32701000,0
08,010300000000072Bh,КС_060825 Техническое перевооружение производства аммиачной селитры ,01,0101,0.00,167221464.40,S01.14,0000,9975,997550001,2022,06,32701000,0
08,0103000000001273h,МО_2022_6000_003092_СИСТЕМА ВИДЕОРЕГИСТРАЦИИ ЭМ-СВР-08 п.4,01,0101,0.00,107264.89,S01.14,0000,9975,997550001,2022,06,32701000,0
08,0103000000001067h,КС_060961 Отделение нейтрализации и выпарки производства аммиачной селитры,01,01,0.00,498670036.68,S01.14,0000,9975,997550001,2022,06,32701000,0
08,010300000000129Ch,МО_2022_5044_003133_УСТАНОВКА КОНДЕНСАТОРНАЯ УКМ63-04-500-50 У3 БСК 1 с.ш.,01,0101,0.00,214200.78,S01.14,0000,9975,997550001,2022,06,32701000,0
08,010300000000072Bh,КС_060825 Техническое перевооружение производства аммиачной селитры ,01,01,0.00,45383017.25,S01.14,0000,9975,997550001,2022,06,32701000,0
08,0103000000001068h,КС_060769 Производство водорода из природного газа,01,0101,0.00,2987621934.01,S01.14,0000,9975,997550001,2022,06,32701000,0
08,0103000000000D85h,МО_2020_3009_002106_Емкость для хранения коагулянта. Корп.309,01,0101,0.00,977425.22,S01.14,0000,9975,997550001,2022,06,32701000,0
08,0103000000001266h,МО_2022_3044_003079_ПРЕСС ГИБОЧНЫЙ AD-R 40320 н/н  382200000127,01,0101,0.00,8398023.80,S01.14,0000,9975,997550001,2022,06,32701000,0
08,0103000000001264h,МО_2022_1070_003077_ИСТОЧНИК БЕСПЕРЕБОЙНОГО ПИТАНИЯ DKC TRIOTT8A10 8000VA,01,0101,0.00,360031.25,S01.14,0000,9975,997550001,2022,06,32701000,0
08,010300000000070Ah,КС_060816 ТП  установки кислотного улавливания аммиака поз.С909,01,0101,0.00,1632521.23,S01.14,0000,9975,997550001,2022,06,32701000,0
08,0103000000001260h,МО_2022_2367_003073_ЦЕНТР ФРЕЗЕРНЫЙ С ЧПУ LK MACHINERY MV-1050 н/н 381029000016,01,0101,0.00,11636918.04,S01.14,0000,9975,997550001,2022,06,32701000,0
08,010300000000042Fh,КС_060658 ТП цеха Карбамид по проекту Установка нейтрализации и приготовления растворов КАС. КАО Азот,91,02,0.00,16652373.02,S01.14,0000,9975,997550001,2022,06,32701000,0
08,0103000000001223h,МО_2021_1070_003015_Трубопровод выхлопных газов из ист.307    _б/п,01,01,0.00,3685444.50,S01.14,0000,9975,997550001,2022,06,32701000,0
08,01030000000012A3h,МО_2022_5044_003140_ШКАФ ШЧРУ-М2-FR-A-30-57,01,0101,0.00,496230.18,S01.14,0000,9975,997550001,2022,06,32701000,0
08,0103000000001196h,МО_2021_3044_002865 Линия автоматическая IM T400 PLUS (IMAC Италия ) б/у  990000018268  ,01,0101,0.00,8433865.81,S01.14,0000,9975,997550001,2022,06,32701000,0
08,0103000000001068h,КС_060769 Производство водорода из природного газа,01,01,0.00,305930998.15,S01.14,0000,9975,997550001,2022,06,32701000,0
08,010300000000126Eh,КС_061036 Монтаж системы световых указателей в к.870,01,0101,0.00,209159.45,S01.14,0000,9975,997550001,2022,06,32701000,0
08,010300000000129Dh,МО_2022_5044_003134_УСТАНОВКА КОНДЕНСАТОРНАЯ УКМ63-04-500-50 У3 БСК 3с.ш.,01,0101,0.00,214200.78,S01.14,0000,9975,997550001,2022,06,32701000,0
08,0103000000000793h,КС_060876 Техническое перевооружение корп. 735 с монтажом насосов азотной кислоты,01,0101,0.00,140000.00,S01.14,0000,9975,997550001,2022,06,32701000,0
08,01030000000010B0h,МО_2021_5021_002633_Емкость МДЭА раствора поз.335_335,01,0101,0.00,9597215.74,S01.14,0000,9975,997550001,2022,06,32701000,0
08,01030000000004EBh,КС_060762 ТП АСУТП цеха Ам-2 с выводом параметров работы и управления СОВ КИПиА на РСУ,91,02,0.00,63325.46,S01.14,0000,9975,997550001,2022,06,32701000,0
08,0103000000000E52h,КС_060923 ТП по проекту Система автоматического газового контроля и анализа по водороду и метану рабочей зоны открытых наружных установок в корп. 673 674 675,01,0101,0.00,5996591.83,S01.14,0000,9975,997550001,2022,06,32701000,0
08,0103000000000FBEh,МО_2020_8021_002396_КОМПЛЕКС ИСПЫТАТЕЛЬНЫЙ (СТЕНД СТИ-11-4-300/40 СТАНЦИЯ НАСОСНАЯ НС-1М(К) КОМПРЕССОР 200Л/МИН СИСТЕМА СТ-RS) ном.№ 396000000509,01,0101,0.00,2482750.00,S01.14,0000,9975,997550001,2022,06,32701000,0
08,010300000000129Fh,МО_2022_5044_003136_УСТАНОВКА КОНДЕНСАТОРНАЯ УКМ63-04-500-50 У3 БСК 2с.ш.,01,0101,0.00,214200.78,S01.14,0000,9975,997550001,2022,06,32701000,0
08,0103000000001256h,МО_2022_3009_003065_УСТАНОВКА НАСОСНАЯ GRUNDFOS HYDRO SOLO E CRE 20-3 (91048910),01,0101,0.00,316099.15,S01.14,0000,9975,997550001,2022,06,32701000,0
08,0103000000001166h,КС_060979 Производство водорода из природного газа. Здание АБК,01,0101,0.00,6646129.93,S01.14,0000,9975,997550001,2022,06,32701000,0
08,010300000000073Fh,КС_060840 Техническое перевоорежение агрегата №15/12 с установкой емкости для сбора и охлаждения конденсата,01,0101,0.00,15784555.64,S01.14,0000,9975,997550001,2022,06,32701000,0
08,0103000000000F81h,МО_2021_3043_СТАНОК ПЛОСКОШЛИФОВАЛЬНЫЙ 3Л722В(А)-М,01,0101,0.00,3480194.34,S01.14,0000,9975,997550001,2022,06,32701000,0
08,010300000000070Eh,КС_060820 Техническое перевооружение межцеховых коммуникаций с подводом сырья до цеха Водорода,01,01,0.00,69180422.99,S01.14,0000,9975,997550001,2022,06,32701000,0
08,0103000000001067h,КС_060961 Отделение нейтрализации и выпарки производства аммиачной селитры,01,0101,0.00,360768406.13,S01.14,0000,9975,997550001,2022,06,32701000,0
08,0103000000000DBDh,МО_2020_3010_002115_Станок токарно-винторезный 16Р25п-2 изготовитель Рязанский завод токарных станков 500 мм/РМЦ2000 мм/,01,0101,0.00,1469481.53,S01.14,0000,9975,997550001,2022,06,32701000,0
08,01030000000011DDh,КС_060994 Монтаж технических средств обеспечивающих в автоматическом режиме оповещение об обнаружении локализации и ликвидации выбросов опасных веществ (РТН ФНиП),01,0101,0.00,824005.73,S01.14,0000,9975,997550001,2022,06,32701000,0
08,01030000000012A2h,МО_2022_5044_003139_ШКАФ ШЧРУ-М2-FR-A-30-57,01,0101,0.00,494442.07,S01.14,0000,9975,997550001,2022,06,32701000,0
08,010300000000072Eh,КС_060826 Техническое перевооружение межцеховых коммуникаций с подводом сырья до цеха аммиачной селитры,01,01,0.00,140000.00,S01.14,0000,9975,997550001,2022,06,32701000,0
08,01030000000010A2h,МО_2020_3009_002619_УЗЕЛ НАГРЕВА ТЕРМАНИК ГВС-20,01,0101,0.00,338771.56,S01.14,0000,9975,997550001,2022,06,32701000,0
08,0103000000001271h,МО_2022_6000_003090_СИСТЕМА ВИДЕОРЕГИСТРАЦИИ ЭМ-СВР-08 п.2,01,0101,0.00,107264.89,S01.14,0000,9975,997550001,2022,06,32701000,0
08,0103000000001090h,КС_060965 Техническое перевооружение АСУТП цеха Карбамид с установкой системы усовершенствованного управления технологическим процессом (СУУТП) на базе контроллера фирмы Honeywell,91,02,0.00,44409.36,S01.14,0000,9975,997550001,2022,06,32701000,0
08,0103000000001285h,МО_2022_3009_003110_АГРЕГАТ ЭЛЕКТРОНАСОСНЫЙ НД 10 1600/16 К14А)(корп.305),01,0101,0.00,167678.69,S01.14,0000,9975,997550001,2022,06,32701000,0
08,0103000000000770h,КС_060863 Строительство производства неконцентрированной азотной кислоты мощностью 500 т/сутки второй очереди,66,010,1000958.96,0.00,S01.14,0000,9975,997550001,2022,06,32701000,0
08,010300000000072Bh,КС_060825 Техническое перевооружение производства аммиачной селитры ,66,010,13324281.10,0.00,S01.14,0000,9975,997550001,2022,06,32701000,0
08,0103000000000C8Ah,МО_2020_5015_001945_КРАН-БАЛКА РОССИЯ КЭП 8-9-11-12-380,01,0101,0.00,3625000.00,S01.14,0000,9975,997550001,2022,06,32701000,0
08,0103000000001284h,МО_2022_3009_003109_НАСОС GRUNDFOS NK 100-200/219 A2F2AE-SBAQE (98741271)(корп.314),01,0101,0.00,911792.85,S01.14,0000,9975,997550001,2022,06,32701000,0
08,010300000000047Dh,КС_060695 ТП цеха Карбамид по проекту Установкой насосов карбомата поз. G902 большей производительности. Цех Карбамид,01,0101,0.00,196875062.69,S01.14,0000,9975,997550001,2022,06,32701000,0
08,010300000000078Bh,КС_060873 ТП опасного производственного объекта А68-00013-0008 Сеть газопотребления КАО Азот. Мини-ТЭС мощностью 225 МВт,01,0101,0.00,1480103.00,S01.14,0000,9975,997550001,2022,06,32701000,0
08,01030000000012A1h,МО_2022_5044_003138_УСТАНОВКА КОНДЕНСАТОРНАЯ УКМ63-04-500-50 У3 БСК 4с.ш.,01,0101,0.00,214200.78,S01.14,0000,9975,997550001,2022,06,32701000,0
08,010300000000070Fh,КС_060821 ТП  корпуса 511А с установкой мостовых кранов и организацией хранения специализированного оборудования.,91,02,0.00,663887.52,S01.14,0000,9975,997550001,2022,06,32701000,0
08,010300000000129Eh,МО_2022_5044_003135_УСТАНОВКА КОНДЕНСАТОРНАЯ УКМ63-04-500-50 У3 БСК 1с.ш.,01,0101,0.00,214200.78,S01.14,0000,9975,997550001,2022,06,32701000,0
08,0103000000001272h,МО_2022_6000_003091_СИСТЕМА ВИДЕОРЕГИСТРАЦИИ ЭМ-СВР-08 п.3,01,0101,0.00,107264.89,S01.14,0000,9975,997550001,2022,06,32701000,0
08,01030000000004ACh,КС_060735 Техническое перевооружение цеха № 15  с внедрением коррекционной обработки питательной воды КН-80/40 агрегатов № 1 2,01,0101,0.00,3614984.23,S01.14,0000,9975,997550001,2022,06,32701000,0