account,subaccount,corr_acc,NREC(KAU1),name NREC(KAU1),turn_kt,taxform,taxpayer,ifns,kpp,fiscal_year,period,oktmo,corr_num
23,01,91,2710000000000038h,АВТОМОБИЛЬНЫМ ТРАНСПОРТОМ,521211.66,S01.24,0000,9975,997550001,2022,06M,32701000,0
23,01,91,27100000000000AAh,АМОРТИЗАЦИЯ ОС,1422161.22,S01.24,0000,9975,997550001,2022,06M,32701000,0
23,01,91,271000000000005Ah,АРЕНДА ЗДАНИЙ И СООРУЖЕНИЙ,50.13,S01.24,0000,9975,997550001,2022,06M,32701000,0
23,01,91,2710000000000028h,БЕНЗИН,-2140.97,S01.24,0000,9975,997550001,2022,06M,32701000,0
23,01,91,2710000000000109h,ВСПОМОГАТЕЛЬНЫЕ МАТЕРИАЛЫ,1830964.26,S01.24,0000,9975,997550001,2022,06M,32701000,0
23,01,91,271000000000002Ah,ДИЗЕЛЬНОЕ ТОПЛИВО,160077.23,S01.24,0000,9975,997550001,2022,06M,32701000,0
23,01,91,2710000000000007h,ЗАРАБОТНАЯ ПЛАТА (РАБОЧИЕ),10256638.83,S01.24,0000,9975,997550001,2022,06M,32701000,0
23,01,91,2710000000000008h,ЗАРАБОТНАЯ ПЛАТА (СЛУЖАЩИЕ),3625881.61,S01.24,0000,9975,997550001,2022,06M,32701000,0
23,01,91,271000000000006Fh,ИНФОРМАЦИОННЫЕ КОНСУЛЬТАЦИОННЫЕ УСЛУГИ,190.24,S01.24,0000,9975,997550001,2022,06M,32701000,0
23,01,91,2710000000000042h,КАПИТАЛЬНЫЙ РЕМОНТ ЗДАНИЙ И СООРУЖЕНИЙ,343202.57,S01.24,0000,9975,997550001,2022,06M,32701000,0
23,01,91,2710000000000053h,ЛИЗИНГ,10919.98,S01.24,0000,9975,997550001,2022,06M,32701000,0
23,01,91,2710000000000027h,МАСЛА,9853.50,S01.24,0000,9975,997550001,2022,06M,32701000,0
23,01,91,27100000000001A0h,МОЛОКО ЗА ВРЕДНОСТЬ В Т.Ч.КОМПЕНСАЦИЯ,24102.89,S01.24,0000,9975,997550001,2022,06M,32701000,0
23,01,91,271000000000000Ch,ОБЯЗАТЕЛЬНОЕ СТРАХОВАНИЕ ОТ НЕСЧАСТНЫХ СЛУЧАЕВ(ОТЧИСЛЕНИЕ),80356.17,S01.24,0000,9975,997550001,2022,06M,32701000,0
23,01,91,271000000000000Bh,ОТЧИСЛЕНИЯ НА СОЦИАЛЬНЫЕ НУЖДЫ (КРОМЕ ОБЯЗАТ.СТРАХОВАНИЯ ОТ НЕСЧАСТНЫХ СЛУЧАЕВ),4534330.01,S01.24,0000,9975,997550001,2022,06M,32701000,0
23,01,91,271000000000007Bh,ПО ПРОТИВОПОЖАРНОЙ ОХРАНЕ,4388.03,S01.24,0000,9975,997550001,2022,06M,32701000,0
23,01,91,2710000000000046h,ПОВЕРКА ОБОРУДОВАНИЯ И СРЕДСТВ ИЗМЕРЕНИЙ,158.95,S01.24,0000,9975,997550001,2022,06M,32701000,0
23,01,91,27100000000000D6h,ПОЛУФАБРИКАТЫ СОБСТВЕННОГО ПРОИЗВОДСТВА,19824.91,S01.24,0000,9975,997550001,2022,06M,32701000,0
23,01,91,271000000000008Fh,ПРОЧИЕ,0.23,S01.24,0000,9975,997550001,2022,06M,32701000,0
23,01,91,2710000000000074h,ПРОЧИЕ  УСЛУГИ,167433.15,S01.24,0000,9975,997550001,2022,06M,32701000,0
23,01,91,27100000000000A4h,ПРОЧИЕ ВНЕПРОИЗВОДСТВЕННЫЕ РАСХОДЫ (В Т.Ч ПРОЧИЕ ПОГРУЗОЧНО-ТРАНСПОРТНЫЕ УСЛУГИ),25.03,S01.24,0000,9975,997550001,2022,06M,32701000,0
23,01,91,27100000000001A1h,ПРОЧИЕ РАСХОДЫ ПО ОБЕСПЕЧЕНИЮ НОРМАЛЬНЫХ УСЛОВИЙ ТРУДА,276903.93,S01.24,0000,9975,997550001,2022,06M,32701000,0
23,01,91,2710000000000048h,ПРОЧИЕ УСЛУГИ ПРОИЗВОДСТВЕННОГО ХАРАКТЕРА,12.93,S01.24,0000,9975,997550001,2022,06M,32701000,0
23,01,91,2710000000000086h,РАСХОДЫ ПО ОБЕСПЕЧЕНИЮ НОРМАЛЬНЫХ УСЛОВИЙ ТРУДА И ТЕХНИКИ БЕЗОПАСНОСТИ,87.00,S01.24,0000,9975,997550001,2022,06M,32701000,0
23,01,91,271000000000008Dh,РАСХОДЫ РАБОТОДАТЕЛЯ ПО ВЫПЛАТЕ ПОСОБИЯ ПО ВРЕМЕННОЙ НЕТРУДОСПОСОБНОСТИ ЗА 3 ДНЯ,153537.91,S01.24,0000,9975,997550001,2022,06M,32701000,0
23,01,91,271000000000003Fh,СЕРВИСНОЕ И ТЕХНИЧЕСКОЕ ОБСЛУЖИВАНИЕ ОБОРУДОВАНИЯ,68349.72,S01.24,0000,9975,997550001,2022,06M,32701000,0
23,01,91,271000000000002Bh,СПЕЦОДЕЖДА И СПЕЦОБУВЬ,642176.05,S01.24,0000,9975,997550001,2022,06M,32701000,0
23,01,91,27100000000000DDh,СЫРЬЕ ВСПОМОГАТЕЛЬНОЕ И МАТЕРИАЛЫ НА ТЕХНОЛОГИЮ,1.62,S01.24,0000,9975,997550001,2022,06M,32701000,0
23,01,91,27100000000000ECh,ТАРА,13478.78,S01.24,0000,9975,997550001,2022,06M,32701000,0
23,01,91,27100000000000E5h,ТАРА И ТАРНЫЕ МАТЕРИАЛЫ НА ТЕХНОЛОГИЮ,8463.92,S01.24,0000,9975,997550001,2022,06M,32701000,0
23,01,91,271000000000003Dh,ТЕКУЩИЙ РЕМОНТ ОБОРУДОВАНИЯ,38339.00,S01.24,0000,9975,997550001,2022,06M,32701000,0
23,01,91,27100000000000E1h,ТЕХНИЧЕСКОЕ ОБСЛУЖИВАНИЕ АВТОТРАНСПОРТА,1677.98,S01.24,0000,9975,997550001,2022,06M,32701000,0
23,01,91,2710000000000030h,ТРАНСПОРТНО-ЗАГОТОВИТЕЛЬНЫЕ РАСХОДЫ,13811.10,S01.24,0000,9975,997550001,2022,06M,32701000,0
23,01,91,2710000000000044h,УСЛУГИ МОНТАЖНО-НАЛАДЧЕСКИХ УПРАВЛЕНИЙ (ПО МОНТАЖУ И ДЕМОНТАЖУ ОБОРУДОВАНИЯ),470.13,S01.24,0000,9975,997550001,2022,06M,32701000,0
23,01,91,2710000000000068h,УСЛУГИ ОРГАНИЗАЦИЙ НАУКИ (В Т.Ч. ЭКСПЕРТНЫЕ УСЛУГИ),20745.46,S01.24,0000,9975,997550001,2022,06M,32701000,0
23,01,91,27100000000000E2h,УСЛУГИ ПО СТОЯНКЕ АВТОТРАНСПОРТА,63.00,S01.24,0000,9975,997550001,2022,06M,32701000,0
23,01,91,271000000000006Bh,УСЛУГИ ПО УДАЛЕНИЮ И ОБРАБОТКЕ ТВЕРДЫХ ОТХОДОВ И ДР. АНАЛОГИЧНОЙ ДЕЯТЕЛЬНОСТИ,24531.81,S01.24,0000,9975,997550001,2022,06M,32701000,0
23,01,91,271000000000011Bh,УСЛУГИ ПРОЧИХ ВСПОМОГАТЕЛЬНЫХ ЦЕХОВ,445040.41,S01.24,0000,9975,997550001,2022,06M,32701000,0
23,01,91,2710000000000197h,ЭКСПЕРТИЗА ПРОЕКТНОЙ ДОКУМЕНТ.ПО ПБ,1917.20,S01.24,0000,9975,997550001,2022,06M,32701000,0
23,03,91,2710000000000038h,АВТОМОБИЛЬНЫМ ТРАНСПОРТОМ,31639.88,S01.24,0000,9975,997550001,2022,06M,32701000,0
23,03,91,27100000000000AAh,АМОРТИЗАЦИЯ ОС,688112.30,S01.24,0000,9975,997550001,2022,06M,32701000,0
23,03,91,2710000000000028h,БЕНЗИН,85266.58,S01.24,0000,9975,997550001,2022,06M,32701000,0
23,03,91,2710000000000109h,ВСПОМОГАТЕЛЬНЫЕ МАТЕРИАЛЫ,166532.02,S01.24,0000,9975,997550001,2022,06M,32701000,0
23,03,91,271000000000002Ah,ДИЗЕЛЬНОЕ ТОПЛИВО,275932.43,S01.24,0000,9975,997550001,2022,06M,32701000,0
23,03,91,2710000000000007h,ЗАРАБОТНАЯ ПЛАТА (РАБОЧИЕ),1181715.92,S01.24,0000,9975,997550001,2022,06M,32701000,0
23,03,91,2710000000000008h,ЗАРАБОТНАЯ ПЛАТА (СЛУЖАЩИЕ),125956.47,S01.24,0000,9975,997550001,2022,06M,32701000,0
23,03,91,271000000000006Fh,ИНФОРМАЦИОННЫЕ КОНСУЛЬТАЦИОННЫЕ УСЛУГИ,163.75,S01.24,0000,9975,997550001,2022,06M,32701000,0
23,03,91,2710000000000053h,ЛИЗИНГ,21940.03,S01.24,0000,9975,997550001,2022,06M,32701000,0
23,03,91,2710000000000027h,МАСЛА,11783.70,S01.24,0000,9975,997550001,2022,06M,32701000,0
23,03,91,27100000000001A0h,МОЛОКО ЗА ВРЕДНОСТЬ В Т.Ч.КОМПЕНСАЦИЯ,103.57,S01.24,0000,9975,997550001,2022,06M,32701000,0
23,03,91,271000000000000Ch,ОБЯЗАТЕЛЬНОЕ СТРАХОВАНИЕ ОТ НЕСЧАСТНЫХ СЛУЧАЕВ(ОТЧИСЛЕНИЕ),7550.31,S01.24,0000,9975,997550001,2022,06M,32701000,0
23,03,91,271000000000000Bh,ОТЧИСЛЕНИЯ НА СОЦИАЛЬНЫЕ НУЖДЫ (КРОМЕ ОБЯЗАТ.СТРАХОВАНИЯ ОТ НЕСЧАСТНЫХ СЛУЧАЕВ),392485.32,S01.24,0000,9975,997550001,2022,06M,32701000,0
23,03,91,271000000000007Bh,ПО ПРОТИВОПОЖАРНОЙ ОХРАНЕ,454.18,S01.24,0000,9975,997550001,2022,06M,32701000,0
23,03,91,27100000000000D6h,ПОЛУФАБРИКАТЫ СОБСТВЕННОГО ПРОИЗВОДСТВА,6438.07,S01.24,0000,9975,997550001,2022,06M,32701000,0
23,03,91,271000000000008Fh,ПРОЧИЕ,12.16,S01.24,0000,9975,997550001,2022,06M,32701000,0
23,03,91,2710000000000074h,ПРОЧИЕ  УСЛУГИ,11119.42,S01.24,0000,9975,997550001,2022,06M,32701000,0
23,03,91,27100000000000A4h,ПРОЧИЕ ВНЕПРОИЗВОДСТВЕННЫЕ РАСХОДЫ (В Т.Ч ПРОЧИЕ ПОГРУЗОЧНО-ТРАНСПОРТНЫЕ УСЛУГИ),39.70,S01.24,0000,9975,997550001,2022,06M,32701000,0
23,03,91,2710000000000086h,РАСХОДЫ ПО ОБЕСПЕЧЕНИЮ НОРМАЛЬНЫХ УСЛОВИЙ ТРУДА И ТЕХНИКИ БЕЗОПАСНОСТИ,50.24,S01.24,0000,9975,997550001,2022,06M,32701000,0
23,03,91,271000000000008Dh,РАСХОДЫ РАБОТОДАТЕЛЯ ПО ВЫПЛАТЕ ПОСОБИЯ ПО ВРЕМЕННОЙ НЕТРУДОСПОСОБНОСТИ ЗА 3 ДНЯ,7972.37,S01.24,0000,9975,997550001,2022,06M,32701000,0
23,03,91,271000000000003Fh,СЕРВИСНОЕ И ТЕХНИЧЕСКОЕ ОБСЛУЖИВАНИЕ ОБОРУДОВАНИЯ,4351.60,S01.24,0000,9975,997550001,2022,06M,32701000,0
23,03,91,271000000000002Bh,СПЕЦОДЕЖДА И СПЕЦОБУВЬ,20577.87,S01.24,0000,9975,997550001,2022,06M,32701000,0
23,03,91,271000000000003Dh,ТЕКУЩИЙ РЕМОНТ ОБОРУДОВАНИЯ,79147.03,S01.24,0000,9975,997550001,2022,06M,32701000,0
23,03,91,27100000000000E1h,ТЕХНИЧЕСКОЕ ОБСЛУЖИВАНИЕ АВТОТРАНСПОРТА,2113.51,S01.24,0000,9975,997550001,2022,06M,32701000,0
23,03,91,2710000000000030h,ТРАНСПОРТНО-ЗАГОТОВИТЕЛЬНЫЕ РАСХОДЫ,1111.66,S01.24,0000,9975,997550001,2022,06M,32701000,0
23,03,91,2710000000000044h,УСЛУГИ МОНТАЖНО-НАЛАДЧЕСКИХ УПРАВЛЕНИЙ (ПО МОНТАЖУ И ДЕМОНТАЖУ ОБОРУДОВАНИЯ),589.47,S01.24,0000,9975,997550001,2022,06M,32701000,0
23,03,91,2710000000000068h,УСЛУГИ ОРГАНИЗАЦИЙ НАУКИ (В Т.Ч. ЭКСПЕРТНЫЕ УСЛУГИ),156.14,S01.24,0000,9975,997550001,2022,06M,32701000,0
23,03,91,27100000000000E2h,УСЛУГИ ПО СТОЯНКЕ АВТОТРАНСПОРТА,131.18,S01.24,0000,9975,997550001,2022,06M,32701000,0
23,03,91,271000000000006Bh,УСЛУГИ ПО УДАЛЕНИЮ И ОБРАБОТКЕ ТВЕРДЫХ ОТХОДОВ И ДР. АНАЛОГИЧНОЙ ДЕЯТЕЛЬНОСТИ,182.88,S01.24,0000,9975,997550001,2022,06M,32701000,0
23,03,91,271000000000011Bh,УСЛУГИ ПРОЧИХ ВСПОМОГАТЕЛЬНЫХ ЦЕХОВ,13312.04,S01.24,0000,9975,997550001,2022,06M,32701000,0
23,03,91,2710000000000197h,ЭКСПЕРТИЗА ПРОЕКТНОЙ ДОКУМЕНТ.ПО ПБ,161.71,S01.24,0000,9975,997550001,2022,06M,32701000,0
23,04,91,01030000000142CDh,ЭЛЕКТРОЭНЕРГИЯ,293979.67,S01.24,0000,9975,997550001,2022,06M,32701000,0
23,04,91,01030000000142D4h,ВОДА ПИТЬЕВАЯ ГОСТ Р 51232-98,204789.82,S01.24,0000,9975,997550001,2022,06M,32701000,0
23,04,91,010300000002602Ch,ЭНЕРГИЯ ТЕПЛОВАЯ,111657.60,S01.24,0000,9975,997550001,2022,06M,32701000,0
23,04,91,01030000000302D8h,ТРАНСПОРТИРОВКА СТОЧНОЙ ВОДЫ,1998.74,S01.24,0000,9975,997550001,2022,06M,32701000,0
25,01,91,0000000000000000h,,0.00,S01.24,0000,9975,997550001,2022,06M,32701000,0
25,01,91,2710000000000038h,АВТОМОБИЛЬНЫМ ТРАНСПОРТОМ,7820.43,S01.24,0000,9975,997550001,2022,06M,32701000,0
25,01,91,27100000000000AAh,АМОРТИЗАЦИЯ ОС,141205.66,S01.24,0000,9975,997550001,2022,06M,32701000,0
25,01,91,2710000000000028h,БЕНЗИН,861.82,S01.24,0000,9975,997550001,2022,06M,32701000,0
25,01,91,2710000000000109h,ВСПОМОГАТЕЛЬНЫЕ МАТЕРИАЛЫ,1784755.57,S01.24,0000,9975,997550001,2022,06M,32701000,0
25,01,91,271000000000002Ah,ДИЗЕЛЬНОЕ ТОПЛИВО,210745.90,S01.24,0000,9975,997550001,2022,06M,32701000,0
25,01,91,2710000000000007h,ЗАРАБОТНАЯ ПЛАТА (РАБОЧИЕ),328219.87,S01.24,0000,9975,997550001,2022,06M,32701000,0
25,01,91,2710000000000008h,ЗАРАБОТНАЯ ПЛАТА (СЛУЖАЩИЕ),25621.29,S01.24,0000,9975,997550001,2022,06M,32701000,0
25,01,91,271000000000006Fh,ИНФОРМАЦИОННЫЕ КОНСУЛЬТАЦИОННЫЕ УСЛУГИ,43.69,S01.24,0000,9975,997550001,2022,06M,32701000,0
25,01,91,2710000000000053h,ЛИЗИНГ,4446.33,S01.24,0000,9975,997550001,2022,06M,32701000,0
25,01,91,2710000000000027h,МАСЛА,2802.16,S01.24,0000,9975,997550001,2022,06M,32701000,0
25,01,91,27100000000001A0h,МОЛОКО ЗА ВРЕДНОСТЬ В Т.Ч.КОМПЕНСАЦИЯ,20.36,S01.24,0000,9975,997550001,2022,06M,32701000,0
25,01,91,271000000000000Ch,ОБЯЗАТЕЛЬНОЕ СТРАХОВАНИЕ ОТ НЕСЧАСТНЫХ СЛУЧАЕВ(ОТЧИСЛЕНИЕ),2046.54,S01.24,0000,9975,997550001,2022,06M,32701000,0
25,01,91,271000000000000Bh,ОТЧИСЛЕНИЯ НА СОЦИАЛЬНЫЕ НУЖДЫ (КРОМЕ ОБЯЗАТ.СТРАХОВАНИЯ ОТ НЕСЧАСТНЫХ СЛУЧАЕВ),106137.89,S01.24,0000,9975,997550001,2022,06M,32701000,0
25,01,91,271000000000007Bh,ПО ПРОТИВОПОЖАРНОЙ ОХРАНЕ,131.80,S01.24,0000,9975,997550001,2022,06M,32701000,0
25,01,91,27100000000000D6h,ПОЛУФАБРИКАТЫ СОБСТВЕННОГО ПРОИЗВОДСТВА,1676.01,S01.24,0000,9975,997550001,2022,06M,32701000,0
25,01,91,271000000000008Fh,ПРОЧИЕ,6.85,S01.24,0000,9975,997550001,2022,06M,32701000,0
25,01,91,2710000000000074h,ПРОЧИЕ  УСЛУГИ,2236.18,S01.24,0000,9975,997550001,2022,06M,32701000,0
25,01,91,27100000000000A4h,ПРОЧИЕ ВНЕПРОИЗВОДСТВЕННЫЕ РАСХОДЫ (В Т.Ч ПРОЧИЕ ПОГРУЗОЧНО-ТРАНСПОРТНЫЕ УСЛУГИ),19.09,S01.24,0000,9975,997550001,2022,06M,32701000,0
25,01,91,2710000000000086h,РАСХОДЫ ПО ОБЕСПЕЧЕНИЮ НОРМАЛЬНЫХ УСЛОВИЙ ТРУДА И ТЕХНИКИ БЕЗОПАСНОСТИ,25.18,S01.24,0000,9975,997550001,2022,06M,32701000,0
25,01,91,271000000000008Dh,РАСХОДЫ РАБОТОДАТЕЛЯ ПО ВЫПЛАТЕ ПОСОБИЯ ПО ВРЕМЕННОЙ НЕТРУДОСПОСОБНОСТИ ЗА 3 ДНЯ,1521.98,S01.24,0000,9975,997550001,2022,06M,32701000,0
25,01,91,271000000000003Fh,СЕРВИСНОЕ И ТЕХНИЧЕСКОЕ ОБСЛУЖИВАНИЕ ОБОРУДОВАНИЯ,907.96,S01.24,0000,9975,997550001,2022,06M,32701000,0
25,01,91,271000000000002Bh,СПЕЦОДЕЖДА И СПЕЦОБУВЬ,3692.79,S01.24,0000,9975,997550001,2022,06M,32701000,0
25,01,91,271000000000003Dh,ТЕКУЩИЙ РЕМОНТ ОБОРУДОВАНИЯ,16078.84,S01.24,0000,9975,997550001,2022,06M,32701000,0
25,01,91,27100000000000E1h,ТЕХНИЧЕСКОЕ ОБСЛУЖИВАНИЕ АВТОТРАНСПОРТА,408.90,S01.24,0000,9975,997550001,2022,06M,32701000,0
25,01,91,2710000000000030h,ТРАНСПОРТНО-ЗАГОТОВИТЕЛЬНЫЕ РАСХОДЫ,186.60,S01.24,0000,9975,997550001,2022,06M,32701000,0
25,01,91,2710000000000044h,УСЛУГИ МОНТАЖНО-НАЛАДЧЕСКИХ УПРАВЛЕНИЙ (ПО МОНТАЖУ И ДЕМОНТАЖУ ОБОРУДОВАНИЯ),232.29,S01.24,0000,9975,997550001,2022,06M,32701000,0
25,01,91,2710000000000068h,УСЛУГИ ОРГАНИЗАЦИЙ НАУКИ (В Т.Ч. ЭКСПЕРТНЫЕ УСЛУГИ),87.96,S01.24,0000,9975,997550001,2022,06M,32701000,0
25,01,91,27100000000000E2h,УСЛУГИ ПО СТОЯНКЕ АВТОТРАНСПОРТА,23.78,S01.24,0000,9975,997550001,2022,06M,32701000,0
25,01,91,271000000000006Bh,УСЛУГИ ПО УДАЛЕНИЮ И ОБРАБОТКЕ ТВЕРДЫХ ОТХОДОВ И ДР. АНАЛОГИЧНОЙ ДЕЯТЕЛЬНОСТИ,41.64,S01.24,0000,9975,997550001,2022,06M,32701000,0
25,01,91,271000000000011Bh,УСЛУГИ ПРОЧИХ ВСПОМОГАТЕЛЬНЫХ ЦЕХОВ,2887.96,S01.24,0000,9975,997550001,2022,06M,32701000,0
25,01,91,2710000000000197h,ЭКСПЕРТИЗА ПРОЕКТНОЙ ДОКУМЕНТ.ПО ПБ,91.10,S01.24,0000,9975,997550001,2022,06M,32701000,0
29,04,91,2710000000000038h,АВТОМОБИЛЬНЫМ ТРАНСПОРТОМ,7643.53,S01.24,0000,9975,997550001,2022,06M,32701000,0
29,04,91,27100000000000AAh,АМОРТИЗАЦИЯ ОС,5139537.59,S01.24,0000,9975,997550001,2022,06M,32701000,0
29,04,91,271000000000005Ah,АРЕНДА ЗДАНИЙ И СООРУЖЕНИЙ,406.63,S01.24,0000,9975,997550001,2022,06M,32701000,0
29,04,91,2710000000000028h,БЕНЗИН,1149.82,S01.24,0000,9975,997550001,2022,06M,32701000,0
29,04,91,2710000000000109h,ВСПОМОГАТЕЛЬНЫЕ МАТЕРИАЛЫ,942249.79,S01.24,0000,9975,997550001,2022,06M,32701000,0
29,04,91,2710000000000075h,ГТС,589.50,S01.24,0000,9975,997550001,2022,06M,32701000,0
29,04,91,271000000000002Ah,ДИЗЕЛЬНОЕ ТОПЛИВО,1724566.20,S01.24,0000,9975,997550001,2022,06M,32701000,0
29,04,91,2710000000000007h,ЗАРАБОТНАЯ ПЛАТА (РАБОЧИЕ),9407140.87,S01.24,0000,9975,997550001,2022,06M,32701000,0
29,04,91,2710000000000008h,ЗАРАБОТНАЯ ПЛАТА (СЛУЖАЩИЕ),2396194.28,S01.24,0000,9975,997550001,2022,06M,32701000,0
29,04,91,271000000000006Fh,ИНФОРМАЦИОННЫЕ КОНСУЛЬТАЦИОННЫЕ УСЛУГИ,54.87,S01.24,0000,9975,997550001,2022,06M,32701000,0
29,04,91,2710000000000053h,ЛИЗИНГ,4388.67,S01.24,0000,9975,997550001,2022,06M,32701000,0
29,04,91,2710000000000027h,МАСЛА,30488.80,S01.24,0000,9975,997550001,2022,06M,32701000,0
29,04,91,27100000000001A0h,МОЛОКО ЗА ВРЕДНОСТЬ В Т.Ч.КОМПЕНСАЦИЯ,8084.92,S01.24,0000,9975,997550001,2022,06M,32701000,0
29,04,91,271000000000000Ch,ОБЯЗАТЕЛЬНОЕ СТРАХОВАНИЕ ОТ НЕСЧАСТНЫХ СЛУЧАЕВ(ОТЧИСЛЕНИЕ),67870.47,S01.24,0000,9975,997550001,2022,06M,32701000,0
29,04,91,271000000000000Bh,ОТЧИСЛЕНИЯ НА СОЦИАЛЬНЫЕ НУЖДЫ (КРОМЕ ОБЯЗАТ.СТРАХОВАНИЯ ОТ НЕСЧАСТНЫХ СЛУЧАЕВ),3678231.31,S01.24,0000,9975,997550001,2022,06M,32701000,0
29,04,91,271000000000007Bh,ПО ПРОТИВОПОЖАРНОЙ ОХРАНЕ,1501.92,S01.24,0000,9975,997550001,2022,06M,32701000,0
29,04,91,2710000000000046h,ПОВЕРКА ОБОРУДОВАНИЯ И СРЕДСТВ ИЗМЕРЕНИЙ,882.74,S01.24,0000,9975,997550001,2022,06M,32701000,0
29,04,91,27100000000000D6h,ПОЛУФАБРИКАТЫ СОБСТВЕННОГО ПРОИЗВОДСТВА,1743909.85,S01.24,0000,9975,997550001,2022,06M,32701000,0
29,04,91,271000000000008Fh,ПРОЧИЕ,6.65,S01.24,0000,9975,997550001,2022,06M,32701000,0
29,04,91,2710000000000074h,ПРОЧИЕ  УСЛУГИ,28027.77,S01.24,0000,9975,997550001,2022,06M,32701000,0
29,04,91,27100000000000A4h,ПРОЧИЕ ВНЕПРОИЗВОДСТВЕННЫЕ РАСХОДЫ (В Т.Ч ПРОЧИЕ ПОГРУЗОЧНО-ТРАНСПОРТНЫЕ УСЛУГИ),16.36,S01.24,0000,9975,997550001,2022,06M,32701000,0
29,04,91,27100000000001A1h,ПРОЧИЕ РАСХОДЫ ПО ОБЕСПЕЧЕНИЮ НОРМАЛЬНЫХ УСЛОВИЙ ТРУДА,1480.00,S01.24,0000,9975,997550001,2022,06M,32701000,0
29,04,91,2710000000000048h,ПРОЧИЕ УСЛУГИ ПРОИЗВОДСТВЕННОГО ХАРАКТЕРА,56.75,S01.24,0000,9975,997550001,2022,06M,32701000,0
29,04,91,2710000000000086h,РАСХОДЫ ПО ОБЕСПЕЧЕНИЮ НОРМАЛЬНЫХ УСЛОВИЙ ТРУДА И ТЕХНИКИ БЕЗОПАСНОСТИ,207.12,S01.24,0000,9975,997550001,2022,06M,32701000,0
29,04,91,271000000000008Dh,РАСХОДЫ РАБОТОДАТЕЛЯ ПО ВЫПЛАТЕ ПОСОБИЯ ПО ВРЕМЕННОЙ НЕТРУДОСПОСОБНОСТИ ЗА 3 ДНЯ,22121.52,S01.24,0000,9975,997550001,2022,06M,32701000,0
29,04,91,271000000000003Fh,СЕРВИСНОЕ И ТЕХНИЧЕСКОЕ ОБСЛУЖИВАНИЕ ОБОРУДОВАНИЯ,8065.84,S01.24,0000,9975,997550001,2022,06M,32701000,0
29,04,91,2710000000000077h,СОТОВАЯ СВЯЗЬ,420.50,S01.24,0000,9975,997550001,2022,06M,32701000,0
29,04,91,271000000000002Bh,СПЕЦОДЕЖДА И СПЕЦОБУВЬ,256614.66,S01.24,0000,9975,997550001,2022,06M,32701000,0
29,04,91,27100000000000DDh,СЫРЬЕ ВСПОМОГАТЕЛЬНОЕ И МАТЕРИАЛЫ НА ТЕХНОЛОГИЮ,41.71,S01.24,0000,9975,997550001,2022,06M,32701000,0
29,04,91,27100000000000E5h,ТАРА И ТАРНЫЕ МАТЕРИАЛЫ НА ТЕХНОЛОГИЮ,0.73,S01.24,0000,9975,997550001,2022,06M,32701000,0
29,04,91,271000000000003Dh,ТЕКУЩИЙ РЕМОНТ ОБОРУДОВАНИЯ,247396.43,S01.24,0000,9975,997550001,2022,06M,32701000,0
29,04,91,27100000000000E1h,ТЕХНИЧЕСКОЕ ОБСЛУЖИВАНИЕ АВТОТРАНСПОРТА,486322.21,S01.24,0000,9975,997550001,2022,06M,32701000,0
29,04,91,2710000000000030h,ТРАНСПОРТНО-ЗАГОТОВИТЕЛЬНЫЕ РАСХОДЫ,51080.24,S01.24,0000,9975,997550001,2022,06M,32701000,0
29,04,91,2710000000000044h,УСЛУГИ МОНТАЖНО-НАЛАДЧЕСКИХ УПРАВЛЕНИЙ (ПО МОНТАЖУ И ДЕМОНТАЖУ ОБОРУДОВАНИЯ),175.70,S01.24,0000,9975,997550001,2022,06M,32701000,0
29,04,91,2710000000000068h,УСЛУГИ ОРГАНИЗАЦИЙ НАУКИ (В Т.Ч. ЭКСПЕРТНЫЕ УСЛУГИ),1498.97,S01.24,0000,9975,997550001,2022,06M,32701000,0
29,04,91,27100000000000E2h,УСЛУГИ ПО СТОЯНКЕ АВТОТРАНСПОРТА,24.21,S01.24,0000,9975,997550001,2022,06M,32701000,0
29,04,91,271000000000006Bh,УСЛУГИ ПО УДАЛЕНИЮ И ОБРАБОТКЕ ТВЕРДЫХ ОТХОДОВ И ДР. АНАЛОГИЧНОЙ ДЕЯТЕЛЬНОСТИ,969.07,S01.24,0000,9975,997550001,2022,06M,32701000,0
29,04,91,271000000000011Bh,УСЛУГИ ПРОЧИХ ВСПОМОГАТЕЛЬНЫХ ЦЕХОВ,22715.45,S01.24,0000,9975,997550001,2022,06M,32701000,0
29,04,91,2710000000000078h,УСЛУГИ СВЯЗИ ПРОЧИЕ,17.74,S01.24,0000,9975,997550001,2022,06M,32701000,0
29,04,91,27100000000000BCh,УЧЕТНАЯ ЦЕНА УСЛУГ,0.00,S01.24,0000,9975,997550001,2022,06M,32701000,0
29,04,91,2710000000000197h,ЭКСПЕРТИЗА ПРОЕКТНОЙ ДОКУМЕНТ.ПО ПБ,13237.02,S01.24,0000,9975,997550001,2022,06M,32701000,0