account,subaccount,NREC(KAU2),name NREC(KAU2),Subdivision,corr_acc,corr_subaccount,turn_dt,turn_kt,taxform,taxpayer,ifns,kpp,fiscal_year,period,oktmo,corr_num
23,01,271000000000002Ch,ТЕКУЩИЙ РЕМОНТ МАШИН И ОБОРУДОВАНИЯ,Локомотивный цех,60,010,43201.28,0,S01.58,0000,9975,997550001,2022,01,32701000,0
23,01,271000000000002Ch,ТЕКУЩИЙ РЕМОНТ МАШИН И ОБОРУДОВАНИЯ,Участок по текущему ремонту вагонов,60,010,3081851.61,0,S01.58,0000,9975,997550001,2022,01,32701000,0
23,01,271000000000002Ch,ТЕКУЩИЙ РЕМОНТ МАШИН И ОБОРУДОВАНИЯ,Участок по текущему ремонту вагонов,60,050,1441439,0,S01.58,0000,9975,997550001,2022,01,32701000,0
23,03,271000000000002Ch,ТЕКУЩИЙ РЕМОНТ МАШИН И ОБОРУДОВАНИЯ,Управление автомобильного транспорта,60,010,1576027.04,0,S01.58,0000,9975,997550001,2022,01,32701000,0
25,01,271000000000002Ch,ТЕКУЩИЙ РЕМОНТ МАШИН И ОБОРУДОВАНИЯ,Цех № 13,60,010,17089,0,S01.58,0000,9975,997550001,2022,01,32701000,0
25,01,271000000000002Ch,ТЕКУЩИЙ РЕМОНТ МАШИН И ОБОРУДОВАНИЯ,Цех газового сырья,60,010,4204666.67,0,S01.58,0000,9975,997550001,2022,01,32701000,0
26,01,271000000000002Ch,ТЕКУЩИЙ РЕМОНТ МАШИН И ОБОРУДОВАНИЯ,Цех складского хозяйства,60,010,6742,0,S01.58,0000,9975,997550001,2022,01,32701000,0
23,01,271000000000002Dh,КАПИТАЛЬНЫЙ РЕМОНТ МАШИН И ОБОРУДОВАНИЯ,Участок по текущему ремонту вагонов,60,040,1636700,0,S01.58,0000,9975,997550001,2022,01,32701000,0
23,01,271000000000002Eh,ТЕКУЩИЙ РЕМОНТ ЗДАНИЙ И СООРУЖЕНИЙ,Локомотивный цех,60,010,950,0,S01.58,0000,9975,997550001,2022,01,32701000,0
25,01,271000000000002Fh,КАПИТАЛЬНЫЙ РЕМОНТ ЗДАНИЙ И СООРУЖЕНИЙ,Цех №15,60,040,1817877.3,0,S01.58,0000,9975,997550001,2022,01,32701000,0
25,01,271000000000002Fh,КАПИТАЛЬНЫЙ РЕМОНТ ЗДАНИЙ И СООРУЖЕНИЙ,Цех газового сырья,60,040,1391609.85,0,S01.58,0000,9975,997550001,2022,01,32701000,0
23,01,271000000000002Ch,ТЕКУЩИЙ РЕМОНТ МАШИН И ОБОРУДОВАНИЯ,Локомотивный цех,60,010,14203.62,0,S01.58,0000,9975,997550001,2022,02,32701000,0
23,01,271000000000002Ch,ТЕКУЩИЙ РЕМОНТ МАШИН И ОБОРУДОВАНИЯ,Участок по текущему ремонту вагонов,60,010,3295368.48,0,S01.58,0000,9975,997550001,2022,02,32701000,0
23,01,271000000000002Ch,ТЕКУЩИЙ РЕМОНТ МАШИН И ОБОРУДОВАНИЯ,Участок по текущему ремонту вагонов,60,050,709850,0,S01.58,0000,9975,997550001,2022,02,32701000,0
23,03,271000000000002Ch,ТЕКУЩИЙ РЕМОНТ МАШИН И ОБОРУДОВАНИЯ,Управление автомобильного транспорта,60,010,511892.2,0,S01.58,0000,9975,997550001,2022,02,32701000,0
25,01,271000000000002Ch,ТЕКУЩИЙ РЕМОНТ МАШИН И ОБОРУДОВАНИЯ,Цех № 13,60,010,49293,0,S01.58,0000,9975,997550001,2022,02,32701000,0
26,01,271000000000002Ch,ТЕКУЩИЙ РЕМОНТ МАШИН И ОБОРУДОВАНИЯ,Пожарная часть-18,60,010,379287.1,0,S01.58,0000,9975,997550001,2022,02,32701000,0
26,01,271000000000002Ch,ТЕКУЩИЙ РЕМОНТ МАШИН И ОБОРУДОВАНИЯ,Руководство и аппарат при руководстве,60,010,3666.67,0,S01.58,0000,9975,997550001,2022,02,32701000,0
26,01,271000000000002Ch,ТЕКУЩИЙ РЕМОНТ МАШИН И ОБОРУДОВАНИЯ,Цех складского хозяйства,60,010,56385,0,S01.58,0000,9975,997550001,2022,02,32701000,0
29,04,271000000000002Ch,ТЕКУЩИЙ РЕМОНТ МАШИН И ОБОРУДОВАНИЯ,Участок металлолома,60,010,76405.83,0,S01.58,0000,9975,997550001,2022,02,32701000,0
23,01,271000000000002Dh,КАПИТАЛЬНЫЙ РЕМОНТ МАШИН И ОБОРУДОВАНИЯ,Участок по текущему ремонту вагонов,60,040,2441215,0,S01.58,0000,9975,997550001,2022,02,32701000,0
23,01,271000000000002Eh,ТЕКУЩИЙ РЕМОНТ ЗДАНИЙ И СООРУЖЕНИЙ,Локомотивный цех,60,010,183333.33,0,S01.58,0000,9975,997550001,2022,02,32701000,0
25,01,271000000000002Eh,ТЕКУЩИЙ РЕМОНТ ЗДАНИЙ И СООРУЖЕНИЙ,Цех аммиака-1,60,010,13333.33,0,S01.58,0000,9975,997550001,2022,02,32701000,0
25,01,271000000000002Eh,ТЕКУЩИЙ РЕМОНТ ЗДАНИЙ И СООРУЖЕНИЙ,Цех аммиака-2,60,010,80000,0,S01.58,0000,9975,997550001,2022,02,32701000,0
26,01,271000000000002Eh,ТЕКУЩИЙ РЕМОНТ ЗДАНИЙ И СООРУЖЕНИЙ,Цех складского хозяйства,60,010,10000,0,S01.58,0000,9975,997550001,2022,02,32701000,0
25,01,271000000000002Fh,КАПИТАЛЬНЫЙ РЕМОНТ ЗДАНИЙ И СООРУЖЕНИЙ,Цех № 13,60,040,585406.73,0,S01.58,0000,9975,997550001,2022,02,32701000,0
25,01,271000000000002Fh,КАПИТАЛЬНЫЙ РЕМОНТ ЗДАНИЙ И СООРУЖЕНИЙ,Цех №15,60,040,2346626,0,S01.58,0000,9975,997550001,2022,02,32701000,0
25,01,271000000000002Fh,КАПИТАЛЬНЫЙ РЕМОНТ ЗДАНИЙ И СООРУЖЕНИЙ,Цех аммиака-2,60,040,206840.95,0,S01.58,0000,9975,997550001,2022,02,32701000,0
25,01,271000000000002Fh,КАПИТАЛЬНЫЙ РЕМОНТ ЗДАНИЙ И СООРУЖЕНИЙ,Цех карбамида,60,040,634415.23,0,S01.58,0000,9975,997550001,2022,02,32701000,0
26,01,271000000000002Fh,КАПИТАЛЬНЫЙ РЕМОНТ ЗДАНИЙ И СООРУЖЕНИЙ,Газоспасательный отряд_с 01.07.2021,60,040,243444.17,0,S01.58,0000,9975,997550001,2022,02,32701000,0
26,01,271000000000002Fh,КАПИТАЛЬНЫЙ РЕМОНТ ЗДАНИЙ И СООРУЖЕНИЙ,Руководство и аппарат при руководстве,60,040,1493723.08,0,S01.58,0000,9975,997550001,2022,02,32701000,0
23,01,271000000000002Ch,ТЕКУЩИЙ РЕМОНТ МАШИН И ОБОРУДОВАНИЯ,Локомотивный цех,60,010,27713.49,0,S01.58,0000,9975,997550001,2022,03,32701000,0
23,01,271000000000002Ch,ТЕКУЩИЙ РЕМОНТ МАШИН И ОБОРУДОВАНИЯ,Участок по текущему ремонту вагонов,60,010,6274924.1,0,S01.58,0000,9975,997550001,2022,03,32701000,0
23,01,271000000000002Ch,ТЕКУЩИЙ РЕМОНТ МАШИН И ОБОРУДОВАНИЯ,Участок по текущему ремонту вагонов,60,050,1659465,0,S01.58,0000,9975,997550001,2022,03,32701000,0
23,01,271000000000002Ch,ТЕКУЩИЙ РЕМОНТ МАШИН И ОБОРУДОВАНИЯ,Цех водоснабжения,60,010,245833.33,0,S01.58,0000,9975,997550001,2022,03,32701000,0
23,03,271000000000002Ch,ТЕКУЩИЙ РЕМОНТ МАШИН И ОБОРУДОВАНИЯ,Управление автомобильного транспорта,60,010,1490143.98,0,S01.58,0000,9975,997550001,2022,03,32701000,0
23,03,271000000000002Ch,ТЕКУЩИЙ РЕМОНТ МАШИН И ОБОРУДОВАНИЯ,Участок №4,60,010,56700,0,S01.58,0000,9975,997550001,2022,03,32701000,0
25,01,271000000000002Ch,ТЕКУЩИЙ РЕМОНТ МАШИН И ОБОРУДОВАНИЯ,Цех № 13,60,010,78567.17,0,S01.58,0000,9975,997550001,2022,03,32701000,0
26,01,271000000000002Ch,ТЕКУЩИЙ РЕМОНТ МАШИН И ОБОРУДОВАНИЯ,Руководство и аппарат при руководстве,60,010,103430.83,0,S01.58,0000,9975,997550001,2022,03,32701000,0
26,01,271000000000002Ch,ТЕКУЩИЙ РЕМОНТ МАШИН И ОБОРУДОВАНИЯ,Санитарная лаборатория_с 01.07.2021,60,010,2414.66,0,S01.58,0000,9975,997550001,2022,03,32701000,0
29,04,271000000000002Ch,ТЕКУЩИЙ РЕМОНТ МАШИН И ОБОРУДОВАНИЯ,Участок металлолома,60,010,123212.5,0,S01.58,0000,9975,997550001,2022,03,32701000,0
23,01,271000000000002Dh,КАПИТАЛЬНЫЙ РЕМОНТ МАШИН И ОБОРУДОВАНИЯ,Участок по текущему ремонту вагонов,60,040,4009085,0,S01.58,0000,9975,997550001,2022,03,32701000,0
25,01,271000000000002Dh,КАПИТАЛЬНЫЙ РЕМОНТ МАШИН И ОБОРУДОВАНИЯ,Цех № 13,60,040,666193.98,0,S01.58,0000,9975,997550001,2022,03,32701000,0
29,04,271000000000002Eh,ТЕКУЩИЙ РЕМОНТ ЗДАНИЙ И СООРУЖЕНИЙ,"Зона отдыха ""Березово""_с 01.05.2021",60,010,50000,0,S01.58,0000,9975,997550001,2022,03,32701000,0
25,01,271000000000002Fh,КАПИТАЛЬНЫЙ РЕМОНТ ЗДАНИЙ И СООРУЖЕНИЙ,Цех №15,60,040,1739830.17,0,S01.58,0000,9975,997550001,2022,03,32701000,0
25,01,271000000000002Fh,КАПИТАЛЬНЫЙ РЕМОНТ ЗДАНИЙ И СООРУЖЕНИЙ,Цех аммиака-1,60,040,2493762.92,0,S01.58,0000,9975,997550001,2022,03,32701000,0
25,01,271000000000002Fh,КАПИТАЛЬНЫЙ РЕМОНТ ЗДАНИЙ И СООРУЖЕНИЙ,Цех аммиака-2,60,040,2745182.83,0,S01.58,0000,9975,997550001,2022,03,32701000,0
25,01,271000000000002Fh,КАПИТАЛЬНЫЙ РЕМОНТ ЗДАНИЙ И СООРУЖЕНИЙ,Цех газового сырья,60,040,576845.89,0,S01.58,0000,9975,997550001,2022,03,32701000,0
26,01,271000000000002Fh,КАПИТАЛЬНЫЙ РЕМОНТ ЗДАНИЙ И СООРУЖЕНИЙ,Руководство и аппарат при руководстве,60,040,1050017.83,0,S01.58,0000,9975,997550001,2022,03,32701000,0
23,01,271000000000002Ch,ТЕКУЩИЙ РЕМОНТ МАШИН И ОБОРУДОВАНИЯ,Локомотивный цех,60,010,5217996.53,0,S01.58,0000,9975,997550001,2022,04,32701000,0
23,01,271000000000002Ch,ТЕКУЩИЙ РЕМОНТ МАШИН И ОБОРУДОВАНИЯ,Участок механизации ЦВ,60,010,28075.83,0,S01.58,0000,9975,997550001,2022,04,32701000,0
23,01,271000000000002Ch,ТЕКУЩИЙ РЕМОНТ МАШИН И ОБОРУДОВАНИЯ,Участок по текущему ремонту вагонов,60,010,5405906.07,0,S01.58,0000,9975,997550001,2022,04,32701000,0
23,01,271000000000002Ch,ТЕКУЩИЙ РЕМОНТ МАШИН И ОБОРУДОВАНИЯ,Участок по текущему ремонту вагонов,60,050,1344612,0,S01.58,0000,9975,997550001,2022,04,32701000,0
23,03,271000000000002Ch,ТЕКУЩИЙ РЕМОНТ МАШИН И ОБОРУДОВАНИЯ,Управление автомобильного транспорта,60,010,1428407.13,0,S01.58,0000,9975,997550001,2022,04,32701000,0
25,01,271000000000002Ch,ТЕКУЩИЙ РЕМОНТ МАШИН И ОБОРУДОВАНИЯ,Цех № 13,60,010,39198.66,0,S01.58,0000,9975,997550001,2022,04,32701000,0
25,01,271000000000002Ch,ТЕКУЩИЙ РЕМОНТ МАШИН И ОБОРУДОВАНИЯ,Цех аммиака-1,60,010,12717.5,0,S01.58,0000,9975,997550001,2022,04,32701000,0
26,01,271000000000002Ch,ТЕКУЩИЙ РЕМОНТ МАШИН И ОБОРУДОВАНИЯ,Руководство и аппарат при руководстве,60,010,60974.73,0,S01.58,0000,9975,997550001,2022,04,32701000,0
26,01,271000000000002Ch,ТЕКУЩИЙ РЕМОНТ МАШИН И ОБОРУДОВАНИЯ,Цех складского хозяйства,60,010,169487.51,0,S01.58,0000,9975,997550001,2022,04,32701000,0
23,01,271000000000002Dh,КАПИТАЛЬНЫЙ РЕМОНТ МАШИН И ОБОРУДОВАНИЯ,Участок по текущему ремонту вагонов,60,040,2361800,0,S01.58,0000,9975,997550001,2022,04,32701000,0
25,01,271000000000002Dh,КАПИТАЛЬНЫЙ РЕМОНТ МАШИН И ОБОРУДОВАНИЯ,Цех аммиака-1,60,040,159225.14,0,S01.58,0000,9975,997550001,2022,04,32701000,0
23,01,271000000000002Fh,КАПИТАЛЬНЫЙ РЕМОНТ ЗДАНИЙ И СООРУЖЕНИЙ,Цех №3,60,040,27079.49,0,S01.58,0000,9975,997550001,2022,04,32701000,0
25,01,271000000000002Fh,КАПИТАЛЬНЫЙ РЕМОНТ ЗДАНИЙ И СООРУЖЕНИЙ,Цех № 13,60,040,798524.3,0,S01.58,0000,9975,997550001,2022,04,32701000,0
25,01,271000000000002Fh,КАПИТАЛЬНЫЙ РЕМОНТ ЗДАНИЙ И СООРУЖЕНИЙ,Цех №15,60,040,5140242.89,0,S01.58,0000,9975,997550001,2022,04,32701000,0
25,01,271000000000002Fh,КАПИТАЛЬНЫЙ РЕМОНТ ЗДАНИЙ И СООРУЖЕНИЙ,Цех аммиака-1,60,040,3211644.57,0,S01.58,0000,9975,997550001,2022,04,32701000,0
25,01,271000000000002Fh,КАПИТАЛЬНЫЙ РЕМОНТ ЗДАНИЙ И СООРУЖЕНИЙ,Цех газового сырья,60,040,609568.54,0,S01.58,0000,9975,997550001,2022,04,32701000,0
25,01,271000000000002Fh,КАПИТАЛЬНЫЙ РЕМОНТ ЗДАНИЙ И СООРУЖЕНИЙ,Цех карбамида,60,040,2736241.04,0,S01.58,0000,9975,997550001,2022,04,32701000,0
26,01,271000000000002Fh,КАПИТАЛЬНЫЙ РЕМОНТ ЗДАНИЙ И СООРУЖЕНИЙ,Руководство и аппарат при руководстве,60,040,267783.62,0,S01.58,0000,9975,997550001,2022,04,32701000,0
23,01,271000000000002Ch,ТЕКУЩИЙ РЕМОНТ МАШИН И ОБОРУДОВАНИЯ,Локомотивный цех,60,010,8940.94,0,S01.58,0000,9975,997550001,2022,05,32701000,0
23,01,271000000000002Ch,ТЕКУЩИЙ РЕМОНТ МАШИН И ОБОРУДОВАНИЯ,Участок по текущему ремонту вагонов,60,010,3748861.9,0,S01.58,0000,9975,997550001,2022,05,32701000,0
23,01,271000000000002Ch,ТЕКУЩИЙ РЕМОНТ МАШИН И ОБОРУДОВАНИЯ,Участок по текущему ремонту вагонов,60,050,985055,0,S01.58,0000,9975,997550001,2022,05,32701000,0
23,01,271000000000002Ch,ТЕКУЩИЙ РЕМОНТ МАШИН И ОБОРУДОВАНИЯ,Цех контрольно-измерительных приборов и автоматики,60,010,3410,0,S01.58,0000,9975,997550001,2022,05,32701000,0
23,03,271000000000002Ch,ТЕКУЩИЙ РЕМОНТ МАШИН И ОБОРУДОВАНИЯ,Управление автомобильного транспорта,60,010,906566.35,0,S01.58,0000,9975,997550001,2022,05,32701000,0
25,01,271000000000002Ch,ТЕКУЩИЙ РЕМОНТ МАШИН И ОБОРУДОВАНИЯ,Цех № 13,60,010,43229.67,0,S01.58,0000,9975,997550001,2022,05,32701000,0
25,01,271000000000002Ch,ТЕКУЩИЙ РЕМОНТ МАШИН И ОБОРУДОВАНИЯ,Цех карбамида,60,010,7976.6,0,S01.58,0000,9975,997550001,2022,05,32701000,0
26,01,271000000000002Ch,ТЕКУЩИЙ РЕМОНТ МАШИН И ОБОРУДОВАНИЯ,Руководство и аппарат при руководстве,60,010,23600,0,S01.58,0000,9975,997550001,2022,05,32701000,0
26,01,271000000000002Ch,ТЕКУЩИЙ РЕМОНТ МАШИН И ОБОРУДОВАНИЯ,Цех складского хозяйства,60,010,18057.6,0,S01.58,0000,9975,997550001,2022,05,32701000,0
29,04,271000000000002Ch,ТЕКУЩИЙ РЕМОНТ МАШИН И ОБОРУДОВАНИЯ,"Зона отдыха ""Березово""_с 01.05.2021",60,010,10500,0,S01.58,0000,9975,997550001,2022,05,32701000,0
23,01,271000000000002Dh,КАПИТАЛЬНЫЙ РЕМОНТ МАШИН И ОБОРУДОВАНИЯ,Участок по текущему ремонту вагонов,60,040,647150,0,S01.58,0000,9975,997550001,2022,05,32701000,0
23,01,271000000000002Eh,ТЕКУЩИЙ РЕМОНТ ЗДАНИЙ И СООРУЖЕНИЙ,Локомотивный цех,60,010,950,0,S01.58,0000,9975,997550001,2022,05,32701000,0
29,04,271000000000002Eh,ТЕКУЩИЙ РЕМОНТ ЗДАНИЙ И СООРУЖЕНИЙ,"Зона отдыха ""Березово""_с 01.05.2021",60,010,108500,0,S01.58,0000,9975,997550001,2022,05,32701000,0
23,01,271000000000002Fh,КАПИТАЛЬНЫЙ РЕМОНТ ЗДАНИЙ И СООРУЖЕНИЙ,Цех по монтажу оборудования и металлоконструкций,60,040,2778260.97,0,S01.58,0000,9975,997550001,2022,05,32701000,0
25,01,271000000000002Fh,КАПИТАЛЬНЫЙ РЕМОНТ ЗДАНИЙ И СООРУЖЕНИЙ,Цех №15,60,040,4406810.41,0,S01.58,0000,9975,997550001,2022,05,32701000,0
25,01,271000000000002Fh,КАПИТАЛЬНЫЙ РЕМОНТ ЗДАНИЙ И СООРУЖЕНИЙ,Цех аммиака-1,60,040,605065.61,0,S01.58,0000,9975,997550001,2022,05,32701000,0
25,01,271000000000002Fh,КАПИТАЛЬНЫЙ РЕМОНТ ЗДАНИЙ И СООРУЖЕНИЙ,Цех аммиака-2,60,040,747548.4,0,S01.58,0000,9975,997550001,2022,05,32701000,0
25,01,271000000000002Fh,КАПИТАЛЬНЫЙ РЕМОНТ ЗДАНИЙ И СООРУЖЕНИЙ,Цех газового сырья,60,040,2903322.68,0,S01.58,0000,9975,997550001,2022,05,32701000,0
25,01,271000000000002Fh,КАПИТАЛЬНЫЙ РЕМОНТ ЗДАНИЙ И СООРУЖЕНИЙ,Цех карбамида,60,040,1624138,0,S01.58,0000,9975,997550001,2022,05,32701000,0
23,01,271000000000002Ch,ТЕКУЩИЙ РЕМОНТ МАШИН И ОБОРУДОВАНИЯ,Локомотивный цех,60,010,53690.15,0,S01.58,0000,9975,997550001,2022,06,32701000,0
23,01,271000000000002Ch,ТЕКУЩИЙ РЕМОНТ МАШИН И ОБОРУДОВАНИЯ,Участок механизации ЦВ,60,010,71481.67,0,S01.58,0000,9975,997550001,2022,06,32701000,0
23,01,271000000000002Ch,ТЕКУЩИЙ РЕМОНТ МАШИН И ОБОРУДОВАНИЯ,Участок по текущему ремонту вагонов,60,010,7966455.07,0,S01.58,0000,9975,997550001,2022,06,32701000,0
23,01,271000000000002Ch,ТЕКУЩИЙ РЕМОНТ МАШИН И ОБОРУДОВАНИЯ,Участок по текущему ремонту вагонов,60,050,2372993.83,0,S01.58,0000,9975,997550001,2022,06,32701000,0
23,03,271000000000002Ch,ТЕКУЩИЙ РЕМОНТ МАШИН И ОБОРУДОВАНИЯ,Управление автомобильного транспорта,60,010,827801.95,0,S01.58,0000,9975,997550001,2022,06,32701000,0
25,01,271000000000002Ch,ТЕКУЩИЙ РЕМОНТ МАШИН И ОБОРУДОВАНИЯ,Цех № 13,60,010,37086.1,0,S01.58,0000,9975,997550001,2022,06,32701000,0
25,01,271000000000002Ch,ТЕКУЩИЙ РЕМОНТ МАШИН И ОБОРУДОВАНИЯ,Цех аммиака-2,60,010,142263.31,0,S01.58,0000,9975,997550001,2022,06,32701000,0
25,01,271000000000002Ch,ТЕКУЩИЙ РЕМОНТ МАШИН И ОБОРУДОВАНИЯ,Цех газового сырья,60,010,45638.24,0,S01.58,0000,9975,997550001,2022,06,32701000,0
26,01,271000000000002Ch,ТЕКУЩИЙ РЕМОНТ МАШИН И ОБОРУДОВАНИЯ,Руководство и аппарат при руководстве,60,010,292270.66,0,S01.58,0000,9975,997550001,2022,06,32701000,0
26,01,271000000000002Ch,ТЕКУЩИЙ РЕМОНТ МАШИН И ОБОРУДОВАНИЯ,Цех складского хозяйства,60,010,177368.54,0,S01.58,0000,9975,997550001,2022,06,32701000,0
23,01,271000000000002Dh,КАПИТАЛЬНЫЙ РЕМОНТ МАШИН И ОБОРУДОВАНИЯ,Участок по текущему ремонту вагонов,60,040,595100,0,S01.58,0000,9975,997550001,2022,06,32701000,0
23,05,271000000000002Dh,КАПИТАЛЬНЫЙ РЕМОНТ МАШИН И ОБОРУДОВАНИЯ,Участок канализования,60,040,1420320,0,S01.58,0000,9975,997550001,2022,06,32701000,0
25,01,271000000000002Dh,КАПИТАЛЬНЫЙ РЕМОНТ МАШИН И ОБОРУДОВАНИЯ,Цех газового сырья,60,040,306725.71,0,S01.58,0000,9975,997550001,2022,06,32701000,0
23,01,271000000000002Eh,ТЕКУЩИЙ РЕМОНТ ЗДАНИЙ И СООРУЖЕНИЙ,Локомотивный цех,60,010,950,0,S01.58,0000,9975,997550001,2022,06,32701000,0
23,01,271000000000002Fh,КАПИТАЛЬНЫЙ РЕМОНТ ЗДАНИЙ И СООРУЖЕНИЙ,Цех по монтажу оборудования и металлоконструкций,60,040,1139062.1,0,S01.58,0000,9975,997550001,2022,06,32701000,0
25,01,271000000000002Fh,КАПИТАЛЬНЫЙ РЕМОНТ ЗДАНИЙ И СООРУЖЕНИЙ,Цех № 13,60,040,1089353.46,0,S01.58,0000,9975,997550001,2022,06,32701000,0
25,01,271000000000002Fh,КАПИТАЛЬНЫЙ РЕМОНТ ЗДАНИЙ И СООРУЖЕНИЙ,Цех №15,60,040,3821508.9,0,S01.58,0000,9975,997550001,2022,06,32701000,0
25,01,271000000000002Fh,КАПИТАЛЬНЫЙ РЕМОНТ ЗДАНИЙ И СООРУЖЕНИЙ,Цех аммиака-1,60,040,454286.94,0,S01.58,0000,9975,997550001,2022,06,32701000,0
25,01,271000000000002Fh,КАПИТАЛЬНЫЙ РЕМОНТ ЗДАНИЙ И СООРУЖЕНИЙ,Цех карбамида,60,040,1617068.41,0,S01.58,0000,9975,997550001,2022,06,32701000,0