supplementary_sheet,supp_sheet_comp,seq_num,operation_type_code,sell_invoice_num,sales_invoice_date,vendor_invoice_correc_num,vendor_invoice_correc_date,seller_invoice_num,date_corr_seller_invoice,corr_invoice_num,corr_invoice_date,confirm_pay_doc_num,document_date,reg_date,name_currency,currency_code,value_in_currency,value_in_rubles,registration_num,quant_unit_code,quant_goods_subj_traceability,cost_goods_sub_traceability,id_partner,id_intermediary,tipusers,tipusers_1,nrec,taxform,taxpayer,ifns,kpp,fiscal_year,period,oktmo,corr_num
,,1,22,АВ013197,2021-12-28,,,,,,,4150,28.12.2021,2022-04-01,,,39916800.00,468717.48,,,0,0,0x8000000000000003,0x8000000000000000,7503,7218,0x81030000001B988F,AR.02.02,0000,9975,997550001,2022,02M,32701000,0
,,2,22,АВ013197,2021-12-28,,,,,,,4150,28.12.2021,2022-04-01,,,39916800.00,60259.89,,,0,0,0x8000000000000003,0x8000000000000000,7503,7218,0x81030000001B9889,AR.02.02,0000,9975,997550001,2022,02M,32701000,0
,,3,22,АВ013197,2021-12-28,,,,,,,4150,28.12.2021,2022-04-01,,,39916800.00,59681.16,,,0,0,0x8000000000000003,0x8000000000000000,7503,7218,0x81030000001BC496,AR.02.02,0000,9975,997550001,2022,02M,32701000,0
,,4,22,АВ013198,2021-12-28,,,,,,,4150,28.12.2021,2022-04-01,,,39916800.00,59681.16,,,0,0,0x8000000000000003,0x8000000000000000,7503,7218,0x81030000001BC496,AR.02.02,0000,9975,997550001,2022,02M,32701000,1