inv_num,object_name,entry_date,spi,term_exploitation,remaining_term,loss_write_off_period,loss_period_left,lesion,loss_sum_monthlly,loss_written_off,tax_period_write_off,remaining_loss,taxform,taxpayer,ifns,kpp,fiscal_year,period,oktmo,corr_num
302941,Корпус 19 здание АБК,2006-09-30,240,14,226,226,37,154195.97,682.28,124857.8,4093.7,25244.47,S01.70,0,9975,997550001,2022,06M,32701000,0
306223,Склад металлический,2011-07-31,361,66,295,295,164,8800.49,29.83,3729.02,178.99,4892.48,S01.70,0,9975,997550001,2022,06M,32701000,0
310965,Квартира г.Кемерово Заводский район ул.Дружбы дом.№ 27а кв.49,2013-07-18,361,83,278,278,171,190511.75,685.29,69214.7,4111.76,117185.29,S01.70,0,9975,997550001,2022,06M,32701000,0
61507,Цех по ремонту топл.аппар.аккумуляторов,2006-09-30,361,57,304,304,115,43049.15,141.61,25914.46,849.65,16285.04,S01.70,0,9975,997550001,2022,06M,32701000,0
61523,Корпус 34 база механизации/бывший свинокомплекс/,2006-08-31,361,56,305,305,115,864331.41,2833.87,521432.72,17003.24,325895.45,S01.70,0,9975,997550001,2022,06M,32701000,0
61525,Корпус 48 для ремонта строит.машин/бывший свинокомплекс/,2006-08-31,361,56,305,305,115,4430397.3,14525.89,2672764.27,87155.36,1670477.67,S01.70,0,9975,997550001,2022,06M,32701000,0
619352,КВАРТИРА УЛ. АГЕЕВА Д.6А КВ.503,2013-08-23,361,8,353,353,247,32132.97,91.03,9102.82,546.17,22483.98,S01.70,0,9975,997550001,2022,06M,32701000,0
619750,КВАРТИРА УЛ. АГЕЕВА Д.6А КВ.313,2013-08-23,361,3,358,358,252,12049.87,33.66,3365.89,201.95,8482.03,S01.70,0,9975,997550001,2022,06M,32701000,0
620733,Подогреватель азотной кислоты,2021-04-08,121,81,40,40,26,446726.98,11168.17,89345.4,67009.05,290372.54,S01.70,0,9975,997550001,2022,06M,32701000,0
622108,УСТАНОВКА РТ 150-12 ДЛЯ МЕСТНОЙ ТЕРМИЧЕСКОЙ ОБРАБОТКИ,2021-06-01,85,70,15,15,2,365454.0,24363.6,146181.6,146181.6,48727.2,S01.70,0,9975,997550001,2022,06M,32701000,0
622109,УСТАНОВКА ОБОРУДОВАНИЯ ПО ВНЕПЕЧНОЙ ТЕРМИЧЕСКОЙ ОБРАБОТКЕ,2021-06-01,85,70,15,15,2,233126.01,15541.73,93250.4,93250.4,31083.47,S01.70,0,9975,997550001,2022,06M,32701000,0
64881,Лукохранилище совхоз Тепличный,2005-04-30,301,40,261,261,55,1208.19,4.63,925.82,27.77,254.6,S01.70,0,9975,997550001,2022,06M,32701000,0
76257,беседки зоны отдыха Журавли,2011-07-31,361,125,236,236,105,6422.28,27.21,3401.63,163.28,2857.37,S01.70,0,9975,997550001,2022,06M,32701000,0
76258,беседки зоны отдыха Журавли,2011-07-31,361,125,236,236,105,6422.29,27.21,3401.64,163.28,2857.37,S01.70,0,9975,997550001,2022,06M,32701000,0
76972,Турбаза,2011-07-31,361,137,224,224,93,241116.61,1076.41,134551.68,6458.48,100106.45,S01.70,0,9975,997550001,2022,06M,32701000,0