account,subaccount,corr_acc,NREC(KAU1),name NREC(KAU1),turn_dt,turn_kt,taxform,taxpayer,ifns,kpp,fiscal_year,period,oktmo,corr_num
20,44,97,2710000000000038h,АВТОМОБИЛЬНЫМ ТРАНСПОРТОМ,0.00,43054.47,S01.17,0000,9975,997550001,2022,06M,32701000,0
20,44,97,27100000000000AAh,АМОРТИЗАЦИЯ ОС,0.00,788656.12,S01.17,0000,9975,997550001,2022,06M,32701000,0
20,44,97,271000000000005Ah,АРЕНДА ЗДАНИЙ И СООРУЖЕНИЙ,0.00,375.70,S01.17,0000,9975,997550001,2022,06M,32701000,0
20,44,97,2710000000000059h,АРЕНДА ЗЕМЛИ,0.00,28879.82,S01.17,0000,9975,997550001,2022,06M,32701000,0
20,44,97,271000000000005Ch,АРЕНДА ПРОЧЕГО ИМУЩЕСТВА,0.00,2005129.83,S01.17,0000,9975,997550001,2022,06M,32701000,0
20,44,97,2710000000000028h,БЕНЗИН,0.00,3301.71,S01.17,0000,9975,997550001,2022,06M,32701000,0
20,44,97,2710000000000109h,ВСПОМОГАТЕЛЬНЫЕ МАТЕРИАЛЫ,0.00,6281429.55,S01.17,0000,9975,997550001,2022,06M,32701000,0
20,44,97,2710000000000075h,ГТС,0.00,2907.70,S01.17,0000,9975,997550001,2022,06M,32701000,0
20,44,97,271000000000002Ah,ДИЗЕЛЬНОЕ ТОПЛИВО,0.00,40135.10,S01.17,0000,9975,997550001,2022,06M,32701000,0
20,44,97,2710000000000007h,ЗАРАБОТНАЯ ПЛАТА (РАБОЧИЕ),0.00,6373010.63,S01.17,0000,9975,997550001,2022,06M,32701000,0
20,44,97,2710000000000008h,ЗАРАБОТНАЯ ПЛАТА (СЛУЖАЩИЕ),0.00,3135681.13,S01.17,0000,9975,997550001,2022,06M,32701000,0
20,44,97,2710000000000042h,КАПИТАЛЬНЫЙ РЕМОНТ ЗДАНИЙ И СООРУЖЕНИЙ,0.00,48750.62,S01.17,0000,9975,997550001,2022,06M,32701000,0
20,44,97,271000000000003Eh,КАПИТАЛЬНЫЙ РЕМОНТ ОБОРУДОВАНИЯ,0.00,-47.70,S01.17,0000,9975,997550001,2022,06M,32701000,0
20,44,97,2710000000000053h,ЛИЗИНГ,0.00,1465.19,S01.17,0000,9975,997550001,2022,06M,32701000,0
20,44,97,2710000000000027h,МАСЛА,0.00,36527.88,S01.17,0000,9975,997550001,2022,06M,32701000,0
20,44,97,27100000000001A0h,МОЛОКО ЗА ВРЕДНОСТЬ В Т.Ч.КОМПЕНСАЦИЯ,0.00,7146.28,S01.17,0000,9975,997550001,2022,06M,32701000,0
20,44,97,271000000000000Ch,ОБЯЗАТЕЛЬНОЕ СТРАХОВАНИЕ ОТ НЕСЧАСТНЫХ СЛУЧАЕВ(ОТЧИСЛЕНИЕ),0.00,54595.37,S01.17,0000,9975,997550001,2022,06M,32701000,0
20,44,97,271000000000000Bh,ОТЧИСЛЕНИЯ НА СОЦИАЛЬНЫЕ НУЖДЫ (КРОМЕ ОБЯЗАТ.СТРАХОВАНИЯ ОТ НЕСЧАСТНЫХ СЛУЧАЕВ),0.00,3102225.76,S01.17,0000,9975,997550001,2022,06M,32701000,0
20,44,97,271000000000007Bh,ПО ПРОТИВОПОЖАРНОЙ ОХРАНЕ,0.00,549.67,S01.17,0000,9975,997550001,2022,06M,32701000,0
20,44,97,2710000000000046h,ПОВЕРКА ОБОРУДОВАНИЯ И СРЕДСТВ ИЗМЕРЕНИЙ,0.00,35461.00,S01.17,0000,9975,997550001,2022,06M,32701000,0
20,44,97,27100000000000D6h,ПОЛУФАБРИКАТЫ СОБСТВЕННОГО ПРОИЗВОДСТВА,0.00,104962791.14,S01.17,0000,9975,997550001,2022,06M,32701000,0
20,44,97,271000000000008Fh,ПРОЧИЕ,0.00,82.87,S01.17,0000,9975,997550001,2022,06M,32701000,0
20,44,97,2710000000000074h,ПРОЧИЕ  УСЛУГИ,0.00,63622.52,S01.17,0000,9975,997550001,2022,06M,32701000,0
20,44,97,27100000000000A4h,ПРОЧИЕ ВНЕПРОИЗВОДСТВЕННЫЕ РАСХОДЫ (В Т.Ч ПРОЧИЕ ПОГРУЗОЧНО-ТРАНСПОРТНЫЕ УСЛУГИ),0.00,14.86,S01.17,0000,9975,997550001,2022,06M,32701000,0
20,44,97,27100000000001A1h,ПРОЧИЕ РАСХОДЫ ПО ОБЕСПЕЧЕНИЮ НОРМАЛЬНЫХ УСЛОВИЙ ТРУДА,0.00,401238.48,S01.17,0000,9975,997550001,2022,06M,32701000,0
20,44,97,2710000000000086h,РАСХОДЫ ПО ОБЕСПЕЧЕНИЮ НОРМАЛЬНЫХ УСЛОВИЙ ТРУДА И ТЕХНИКИ БЕЗОПАСНОСТИ,0.00,1758.36,S01.17,0000,9975,997550001,2022,06M,32701000,0
20,44,97,2710000000000088h,РАСХОДЫ ПО СЕРТИФИКАЦИИ ЛИЦЕНЗИРОВАНИЮ,0.00,289.19,S01.17,0000,9975,997550001,2022,06M,32701000,0
20,44,97,271000000000008Dh,РАСХОДЫ РАБОТОДАТЕЛЯ ПО ВЫПЛАТЕ ПОСОБИЯ ПО ВРЕМЕННОЙ НЕТРУДОСПОСОБНОСТИ ЗА 3 ДНЯ,0.00,56654.72,S01.17,0000,9975,997550001,2022,06M,32701000,0
20,44,97,271000000000003Fh,СЕРВИСНОЕ И ТЕХНИЧЕСКОЕ ОБСЛУЖИВАНИЕ ОБОРУДОВАНИЯ,0.00,41092.00,S01.17,0000,9975,997550001,2022,06M,32701000,0
20,44,97,2710000000000077h,СОТОВАЯ СВЯЗЬ,0.00,2168.94,S01.17,0000,9975,997550001,2022,06M,32701000,0
20,44,97,271000000000002Bh,СПЕЦОДЕЖДА И СПЕЦОБУВЬ,0.00,213199.07,S01.17,0000,9975,997550001,2022,06M,32701000,0
20,44,97,27100000000000DDh,СЫРЬЕ ВСПОМОГАТЕЛЬНОЕ И МАТЕРИАЛЫ НА ТЕХНОЛОГИЮ,0.00,-89404555.44,S01.17,0000,9975,997550001,2022,06M,32701000,0
20,44,97,27100000000000DCh,СЫРЬЕ ОСНОВНОЕ,0.00,-12887.73,S01.17,0000,9975,997550001,2022,06M,32701000,0
20,44,97,27100000000000ECh,ТАРА,0.00,1243.92,S01.17,0000,9975,997550001,2022,06M,32701000,0
20,44,97,27100000000000E5h,ТАРА И ТАРНЫЕ МАТЕРИАЛЫ НА ТЕХНОЛОГИЮ,0.00,3728.87,S01.17,0000,9975,997550001,2022,06M,32701000,0
20,44,97,271000000000003Dh,ТЕКУЩИЙ РЕМОНТ ОБОРУДОВАНИЯ,0.00,3887.73,S01.17,0000,9975,997550001,2022,06M,32701000,0
20,44,97,27100000000000E1h,ТЕХНИЧЕСКОЕ ОБСЛУЖИВАНИЕ АВТОТРАНСПОРТА,0.00,30.47,S01.17,0000,9975,997550001,2022,06M,32701000,0
20,44,97,2710000000000030h,ТРАНСПОРТНО-ЗАГОТОВИТЕЛЬНЫЕ РАСХОДЫ,0.00,135312.38,S01.17,0000,9975,997550001,2022,06M,32701000,0
20,44,97,2710000000000044h,УСЛУГИ МОНТАЖНО-НАЛАДЧЕСКИХ УПРАВЛЕНИЙ (ПО МОНТАЖУ И ДЕМОНТАЖУ ОБОРУДОВАНИЯ),0.00,82.26,S01.17,0000,9975,997550001,2022,06M,32701000,0
20,44,97,2710000000000068h,УСЛУГИ ОРГАНИЗАЦИЙ НАУКИ (В Т.Ч. ЭКСПЕРТНЫЕ УСЛУГИ),0.00,12508.21,S01.17,0000,9975,997550001,2022,06M,32701000,0
20,44,97,27100000000000E2h,УСЛУГИ ПО СТОЯНКЕ АВТОТРАНСПОРТА,0.00,6.32,S01.17,0000,9975,997550001,2022,06M,32701000,0
20,44,97,271000000000006Bh,УСЛУГИ ПО УДАЛЕНИЮ И ОБРАБОТКЕ ТВЕРДЫХ ОТХОДОВ И ДР. АНАЛОГИЧНОЙ ДЕЯТЕЛЬНОСТИ,0.00,106613.54,S01.17,0000,9975,997550001,2022,06M,32701000,0
20,44,97,271000000000011Bh,УСЛУГИ ПРОЧИХ ВСПОМОГАТЕЛЬНЫХ ЦЕХОВ,0.00,329704.81,S01.17,0000,9975,997550001,2022,06M,32701000,0
20,44,97,2710000000000078h,УСЛУГИ СВЯЗИ ПРОЧИЕ,0.00,104.04,S01.17,0000,9975,997550001,2022,06M,32701000,0
20,44,97,27100000000000BBh,УЧЕТНАЯ ЦЕНА ГП,0.00,-2539171.19,S01.17,0000,9975,997550001,2022,06M,32701000,0
20,44,97,2710000000000197h,ЭКСПЕРТИЗА ПРОЕКТНОЙ ДОКУМЕНТ.ПО ПБ,0.00,796507.07,S01.17,0000,9975,997550001,2022,06M,32701000,0
26,01,97,2710000000000088h,РАСХОДЫ ПО СЕРТИФИКАЦИИ ЛИЦЕНЗИРОВАНИЮ,20565708.39,0.00,S01.17,0000,9975,997550001,2022,06M,32701000,0