order,inv_num,object_name,entry_date,spi,initial_cost,modern_sum,taxform,taxpayer,ifns,kpp,fiscal_year,period,oktmo,corr_num
4,605232,ПАТЕНТ НА ИЗОБРЕТЕНИЕ № 2753400 - Эмульгирующий состав для изготовления эмульсий вода в масле,2021-08-16,216,7550.00,209.72,S01.65,0000,9975,997550001,2022,06M,32701000,0
3,605231,ЛИЦЕНЗИЯ НА ТЕХНОЛОГИЮ ПРОИЗВОДСТВА АЗОТНОЙ КИСЛОТЫ (KELLOGG BROWN ROOT),2021-12-31,121,8039251.00,398640.55,S01.65,0000,9975,997550001,2022,06M,32701000,0
2,605203,Разработка катализаторов очистки выхлопных газов от окислов азота в цехе №15,2021-09-30,61,3700000.00,363934.43,S01.65,0000,9975,997550001,2022,06M,32701000,0
1,605113,Разработка технологии производства эмульгатора эмульсионных взрывчатых веществ,2021-02-28,37,7781553.02,1261873.46,S01.65,0000,9975,997550001,2022,06M,32701000,0