﻿account,subaccount,corr_acc,corr_subaccount,NREC(KAU1),name NREC(KAU1),turn_dt,taxform,taxpayer,ifns,kpp,fiscal_year,period,oktmo,corr_num
96,01,69,01,271000000000022Ah,Оценочное обязательство на оплату отпусков,224424.51,S01.05,0000,9975,997550001,2022,01,32701000,0
96,01,69,02,271000000000022Ah,Оценочное обязательство на оплату отпусков,1992233.32,S01.05,0000,9975,997550001,2022,01,32701000,0
96,01,69,03,271000000000022Ah,Оценочное обязательство на оплату отпусков,394677.54,S01.05,0000,9975,997550001,2022,01,32701000,0
96,01,69,01,271000000000022Ah,Оценочное обязательство на оплату отпусков,340404.56,S01.05,0000,9975,997550001,2022,02,32701000,0
96,01,69,02,271000000000022Ah,Оценочное обязательство на оплату отпусков,3014037.06,S01.05,0000,9975,997550001,2022,02,32701000,0
96,01,69,03,271000000000022Ah,Оценочное обязательство на оплату отпусков,598642.50,S01.05,0000,9975,997550001,2022,02,32701000,0
96,01,69,01,271000000000022Ah,Оценочное обязательство на оплату отпусков,402265.43,S01.05,0000,9975,997550001,2022,03,32701000,0
96,01,69,02,271000000000022Ah,Оценочное обязательство на оплату отпусков,3571262.05,S01.05,0000,9975,997550001,2022,03,32701000,0
96,01,69,03,271000000000022Ah,Оценочное обязательство на оплату отпусков,707432.35,S01.05,0000,9975,997550001,2022,03,32701000,0
96,01,69,01,271000000000022Ah,Оценочное обязательство на оплату отпусков,349200.54,S01.05,0000,9975,997550001,2022,04,32701000,0
96,01,69,02,271000000000022Ah,Оценочное обязательство на оплату отпусков,3126135.57,S01.05,0000,9975,997550001,2022,04,32701000,0
96,01,69,03,271000000000022Ah,Оценочное обязательство на оплату отпусков,614111.17,S01.05,0000,9975,997550001,2022,04,32701000,0
96,01,69,01,271000000000022Ah,Оценочное обязательство на оплату отпусков,433628.60,S01.05,0000,9975,997550001,2022,05,32701000,0
96,01,69,02,271000000000022Ah,Оценочное обязательство на оплату отпусков,3876222.53,S01.05,0000,9975,997550001,2022,05,32701000,0
96,01,69,03,271000000000022Ah,Оценочное обязательство на оплату отпусков,763202.13,S01.05,0000,9975,997550001,2022,05,32701000,0
96,01,69,01,271000000000022Ah,Оценочное обязательство на оплату отпусков,686324.25,S01.05,0000,9975,997550001,2022,06,32701000,0
96,01,69,02,271000000000022Ah,Оценочное обязательство на оплату отпусков,6345639.15,S01.05,0000,9975,997550001,2022,06,32701000,0
96,01,69,03,271000000000022Ah,Оценочное обязательство на оплату отпусков,1269706.40,S01.05,0000,9975,997550001,2022,06,32701000,0
